<svg width="80" height="80" viewBox="0 0 80 80" fill="none" xmlns="http://www.w3.org/2000/svg">
<path d="M52.0415 5.45764H14.4482C13.8009 5.45764 13.2764 5.98217 13.2764 6.62951C13.2764 7.27685 13.8011 7.80138 14.4482 7.80138H52.0415C52.6889 7.80138 53.2134 7.27685 53.2134 6.62951C53.2134 5.98217 52.6889 5.45764 52.0415 5.45764Z" fill="#03B6C8"/>
<path d="M57.1384 5.17169C56.491 5.17169 55.9665 5.69622 55.9665 6.34356V6.52653C55.9665 7.17387 56.491 7.6984 57.1384 7.6984C57.7857 7.6984 58.3102 7.17372 58.3102 6.52653V6.34356C58.3102 5.69622 57.7857 5.17169 57.1384 5.17169Z" fill="#03B6C8"/>
<path d="M61.3451 5.17169C60.6977 5.17169 60.1732 5.69622 60.1732 6.34356V6.52653C60.1732 7.17387 60.6977 7.6984 61.3451 7.6984C61.9924 7.6984 62.517 7.17372 62.517 6.52653V6.34356C62.517 5.69622 61.9924 5.17169 61.3451 5.17169Z" fill="#03B6C8"/>
<path d="M65.5519 5.17169C64.9046 5.17169 64.3801 5.69622 64.3801 6.34356V6.52653C64.3801 7.17387 64.9046 7.6984 65.5519 7.6984C66.1993 7.6984 66.7238 7.17372 66.7238 6.52653V6.34356C66.7238 5.69622 66.1993 5.17169 65.5519 5.17169Z" fill="#03B6C8"/>
<path d="M19.4756 17.321H14.8648C14.2175 17.321 13.6929 17.8455 13.6929 18.4929C13.6929 19.1402 14.2176 19.6648 14.8648 19.6648H19.4756C20.1229 19.6648 20.6474 19.1402 20.6474 18.4929C20.6474 17.8455 20.1229 17.321 19.4756 17.321Z" fill="#03B6C8"/>
<path d="M30.8394 22.7754H14.8648C14.2175 22.7754 13.6929 23.2999 13.6929 23.9473C13.6929 24.5946 14.2176 25.1191 14.8648 25.1191H30.8394C31.4868 25.1191 32.0113 24.5946 32.0113 23.9473C32.0113 23.2999 31.4868 22.7754 30.8394 22.7754Z" fill="#03B6C8"/>
<path d="M65.1352 26.6316H14.8648C14.2175 26.6316 13.6929 27.1562 13.6929 27.8035C13.6929 28.4508 14.2176 28.9754 14.8648 28.9754H65.1352C65.7826 28.9754 66.3071 28.4508 66.3071 27.8035C66.3071 27.1562 65.7826 26.6316 65.1352 26.6316Z" fill="#03B6C8"/>
<path d="M41.2456 22.7754H35.9356C35.2883 22.7754 34.7637 23.2999 34.7637 23.9473C34.7637 24.5946 35.2883 25.1191 35.9356 25.1191H41.2456C41.8929 25.1191 42.4174 24.5946 42.4174 23.9473C42.4174 23.2999 41.8929 22.7754 41.2456 22.7754Z" fill="#03B6C8"/>
<path d="M65.1354 22.7754H46.057C45.4097 22.7754 44.8851 23.2999 44.8851 23.9473C44.8851 24.5946 45.4097 25.1191 46.057 25.1191H65.1354C65.7827 25.1191 66.3072 24.5946 66.3072 23.9473C66.3072 23.2999 65.7827 22.7754 65.1354 22.7754Z" fill="#03B6C8"/>
<path d="M8.11871 64.5223C7.47137 64.5223 6.94684 65.0468 6.94684 65.6941V65.8963C6.94684 66.5437 7.47152 67.0682 8.11871 67.0682C8.76605 67.0682 9.29058 66.5437 9.29058 65.8963V65.6941C9.29058 65.0468 8.76605 64.5223 8.11871 64.5223Z" fill="#03B6C8"/>
<path d="M11.2487 64.5223C10.6014 64.5223 10.0768 65.0468 10.0768 65.6941V65.8963C10.0768 66.5437 10.6014 67.0682 11.2487 67.0682C11.8961 67.0682 12.4206 66.5437 12.4206 65.8963V65.6941C12.4206 65.0468 11.8961 64.5223 11.2487 64.5223Z" fill="#03B6C8"/>
<path d="M11.2487 68.3914H8.14123C7.49389 68.3914 6.96936 68.9159 6.96936 69.5633C6.96936 70.2106 7.49389 70.7352 8.14123 70.7352H11.2487C11.8961 70.7352 12.4206 70.2106 12.4206 69.5633C12.4206 68.9159 11.8961 68.3914 11.2487 68.3914Z" fill="#03B6C8"/>
<path d="M16.4276 71.3582H8.14123C7.49389 71.3582 6.96936 71.8829 6.96936 72.5301C6.96936 73.1774 7.49389 73.7019 8.14123 73.7019H16.4276C17.0749 73.7019 17.5995 73.1774 17.5995 72.5301C17.5995 71.8827 17.0749 71.3582 16.4276 71.3582Z" fill="#03B6C8"/>
<path d="M35.7377 64.5223C35.0903 64.5223 34.5658 65.0468 34.5658 65.6941V65.8963C34.5658 66.5437 35.0903 67.0682 35.7377 67.0682C36.385 67.0682 36.9095 66.5437 36.9095 65.8963V65.6941C36.9095 65.047 36.385 64.5223 35.7377 64.5223Z" fill="#03B6C8"/>
<path d="M38.8675 64.5223C38.2202 64.5223 37.6956 65.0468 37.6956 65.6941V65.8963C37.6956 66.5437 38.2202 67.0682 38.8675 67.0682C39.5148 67.0682 40.0394 66.5437 40.0394 65.8963V65.6941C40.0394 65.0468 39.5148 64.5223 38.8675 64.5223Z" fill="#03B6C8"/>
<path d="M38.8677 68.3914H35.7602C35.1128 68.3914 34.5883 68.9161 34.5883 69.5633C34.5883 70.2106 35.1128 70.7352 35.7602 70.7352H38.8677C39.515 70.7352 40.0395 70.2106 40.0395 69.5633C40.0395 68.9159 39.515 68.3914 38.8677 68.3914Z" fill="#03B6C8"/>
<path d="M44.0466 71.3582H35.7602C35.1128 71.3582 34.5883 71.8827 34.5883 72.5301C34.5883 73.1774 35.1128 73.7019 35.7602 73.7019H44.0466C44.6939 73.7019 45.2184 73.1774 45.2184 72.5301C45.2184 71.8827 44.6939 71.3582 44.0466 71.3582Z" fill="#03B6C8"/>
<path d="M78.1634 63.9246L72.8066 58.5677C72.5867 58.3481 72.2888 58.2246 71.9778 58.2246H68.791V49.5086C68.791 49.5076 68.7908 49.5065 68.7908 49.5056C70.0933 48.9965 71.0188 47.7289 71.0188 46.2483C71.0188 44.7312 70.0474 43.4373 68.6943 42.9545V36.5711H73.6447C74.9934 36.5711 76.0906 35.4739 76.0906 34.125V3.95952C76.0905 1.77624 74.3142 0 72.131 0H17.0274C16.3801 0 15.8556 0.524529 15.8556 1.17187C15.8556 1.81921 16.3801 2.34374 17.0274 2.34374H72.131C73.0219 2.34374 73.7467 3.06858 73.7467 3.95952V10.5262H6.25342V3.95952C6.25342 3.06858 6.97826 2.34374 7.86919 2.34374H12.2434C12.8907 2.34374 13.4153 1.81921 13.4153 1.17187C13.4153 0.524529 12.8907 0 12.2434 0H7.86919C5.68592 0 3.90968 1.77624 3.90968 3.95952V34.1247C3.90968 35.4736 5.00686 36.5708 6.3556 36.5708H11.1125V42.9542C9.75934 43.4372 8.78794 44.7309 8.78794 46.2479C8.78794 47.8008 9.80575 49.12 11.2092 49.5746V58.2245H2.66546C2.01812 58.2245 1.49359 58.749 1.49359 59.3963V78.8278C1.49359 79.4752 2.01812 79.9997 2.66546 79.9997H22.0968C22.7441 79.9997 23.2687 79.4752 23.2687 78.8278V64.7535C23.2687 64.4427 23.1452 64.1448 22.9255 63.9249L17.5688 58.5679C17.349 58.3482 17.051 58.2248 16.7401 58.2248H13.5531V49.5087C13.5531 49.5078 13.5529 49.5067 13.5529 49.5057C14.8554 48.9967 15.7809 47.729 15.7809 46.2484C15.7809 44.7314 14.8095 43.4375 13.4564 42.9547V36.5713H38.8283V58.2248H30.2846C29.6372 58.2248 29.1127 58.7493 29.1127 59.3966V78.828C29.1127 79.4753 29.6372 79.9998 30.2846 79.9998H34.7435C35.3908 79.9998 35.9153 79.4753 35.9153 78.828C35.9153 78.1806 35.3908 77.6561 34.7435 77.6561H31.4564V60.5685H43.8736L48.5439 65.239V77.6561H39.5277C38.8803 77.6561 38.3558 78.1806 38.3558 78.828C38.3558 79.4753 38.8803 79.9998 39.5277 79.9998H49.7157C50.3631 79.9998 50.8876 79.4753 50.8876 78.828V64.7535C50.8876 64.4427 50.7642 64.1448 50.5445 63.9249L45.1878 58.5679C44.9679 58.3482 44.67 58.2248 44.359 58.2248H41.1722V36.5708H52.1395C52.7868 36.5708 53.3113 36.0463 53.3113 35.3989C53.3113 34.7516 52.7868 34.2271 52.1395 34.2271H6.3556C6.29935 34.2271 6.25342 34.1811 6.25342 34.1247V12.8699H73.7467V34.1246C73.7467 34.181 73.7008 34.2269 73.6445 34.2269H56.9234C56.276 34.2269 55.7515 34.7514 55.7515 35.3988C55.7515 36.0461 56.276 36.5706 56.9234 36.5706H66.3504V42.9541C64.9972 43.437 64.0258 44.7308 64.0258 46.2478C64.0258 47.8006 65.0436 49.1198 66.4471 49.5745V58.2243H57.9034C57.256 58.2243 56.7315 58.7488 56.7315 59.3962V78.8275C56.7315 79.4748 57.256 79.9994 57.9034 79.9994H77.3347C77.982 79.9994 78.5066 79.4748 78.5066 78.8275V64.7532C78.5066 64.4426 78.3831 64.1444 78.1634 63.9246ZM16.2546 60.5684L20.9248 65.2386V77.6559H3.83733V60.5684H16.2546ZM12.2845 45.0954C12.92 45.0954 13.4371 45.6126 13.4371 46.2481C13.4371 46.8837 12.92 47.4009 12.2845 47.4009C11.649 47.4009 11.1318 46.8837 11.1318 46.2481C11.1318 45.6126 11.6489 45.0954 12.2845 45.0954ZM66.3696 46.2481C66.3696 45.6126 66.8868 45.0954 67.5222 45.0954C68.1577 45.0954 68.6749 45.6126 68.6749 46.2481C68.6749 46.8837 68.1577 47.4009 67.5222 47.4009C66.8868 47.4009 66.3696 46.8837 66.3696 46.2481ZM76.163 77.6559H59.0754V60.5684H71.4925L76.163 65.2388V77.6559Z" fill="#03B6C8"/>
<path d="M63.3566 64.5223C62.7093 64.5223 62.1848 65.0468 62.1848 65.6941V65.8963C62.1848 66.5437 62.7093 67.0682 63.3566 67.0682C64.004 67.0682 64.5285 66.5437 64.5285 65.8963V65.6941C64.5285 65.0468 64.004 64.5223 63.3566 64.5223Z" fill="#03B6C8"/>
<path d="M66.4864 64.5223C65.8391 64.5223 65.3146 65.0468 65.3146 65.6941V65.8963C65.3146 66.5437 65.8393 67.0682 66.4864 67.0682C67.1338 67.0682 67.6583 66.5437 67.6583 65.8963V65.6941C67.6583 65.0468 67.1338 64.5223 66.4864 64.5223Z" fill="#03B6C8"/>
<path d="M66.4865 68.3914H63.379C62.7316 68.3914 62.2071 68.9159 62.2071 69.5633C62.2071 70.2106 62.7316 70.7352 63.379 70.7352H66.4865C67.1338 70.7352 67.6583 70.2106 67.6583 69.5633C67.6583 68.9159 67.1338 68.3914 66.4865 68.3914Z" fill="#03B6C8"/>
<path d="M71.6655 71.3582H63.3791C62.7318 71.3582 62.2073 71.8829 62.2073 72.5301C62.2073 73.1774 62.7318 73.7019 63.3791 73.7019H71.6655C72.3129 73.7019 72.8374 73.1774 72.8374 72.5301C72.8374 71.8827 72.3129 71.3582 71.6655 71.3582Z" fill="#03B6C8"/>
</svg>
