<svg width="215" height="256" viewBox="0 0 215 256" fill="none" xmlns="http://www.w3.org/2000/svg">
<path d="M0 107.413C0 166.735 66.65 223.06 107.5 256C133.341 234.257 162.764 209.849 184.288 182.601L149.067 159.474C137.67 168.57 123.221 174.008 107.5 174.008C70.6902 174.008 40.85 144.192 40.85 107.413C40.85 70.6327 70.6902 40.8168 107.5 40.8168C144.31 40.8168 174.15 70.6327 174.15 107.413C174.15 112.456 173.589 117.369 172.525 122.092L207.265 144.649C212.176 132.709 215 120.3 215 107.413C215 48.0903 166.871 0 107.5 0C48.1294 0 0 48.0903 0 107.413Z" fill="#03B6C8"/>
<path d="M100.056 105.542H114.823V140.138H100.056V105.542Z" fill="#03B6C8"/>
<path d="M84.6747 105.542L84.6747 95.6576H129.589V105.542L84.6747 105.542Z" fill="#03B6C8"/>
<path d="M84.6747 88.9649V79.0804H129.589V88.9649L84.6747 88.9649Z" fill="#03B6C8"/>
</svg>
